{
  "lobe1602": {
    "host": "studentpsql.miun.se",
    "port": "5432",
    "dbname": "lobe1602",
    "user": "lobe1602",
    "password": "gif9LzhVb",
    "path": "project",
    "admin": "Bernard Che Longho (lobe1602)"
  },
  "local": {
    "host": "localhost",
    "port": "5432",
    "dbname": "lobe1602",
    "user": "lobe1602",
    "password": "gif9LzhVb",
    "admin": "Bernard Che Longho (lobe1602)"
  },
  "links": {
    "admin": {
      "Adminsida": "admin.php"
    },
    "member": {
      "Meddlemssida": "members.php"
    },
    "default": {
      "Hem": "index.php",
      "Gästbok": "guestbook.php"
    }
  },
  "others": {
    "debug": true
  },
  "session": {
    "_comment": "The time below is 15*60 i.e fifteen minutes for each session",
    "expire": 900
  }
}

